<?xml version="1.0" encoding="UTF-8" standalone="no"?>
<svg
   xmlns:dc="http://purl.org/dc/elements/1.1/"
   xmlns:cc="http://creativecommons.org/ns#"
   xmlns:rdf="http://www.w3.org/1999/02/22-rdf-syntax-ns#"
   xmlns:svg="http://www.w3.org/2000/svg"
   xmlns="http://www.w3.org/2000/svg"
   xmlns:sodipodi="http://sodipodi.sourceforge.net/DTD/sodipodi-0.dtd"
   xmlns:inkscape="http://www.inkscape.org/namespaces/inkscape"
   version="1.1"
   viewBox="0 0 200 452"
   stroke-miterlimit="10"
   id="svg27"
   sodipodi:docname="labriunesp-03.svg"
   width="819"
   height="452"
   style="fill:none;stroke:none;stroke-linecap:square;stroke-miterlimit:10"
   inkscape:version="0.92.3 (2405546, 2018-03-11)">
  <metadata
     id="metadata33">
    <rdf:RDF>
      <cc:Work
         rdf:about="">
        <dc:format>image/svg+xml</dc:format>
        <dc:type
           rdf:resource="http://purl.org/dc/dcmitype/StillImage" />
        <dc:title></dc:title>
      </cc:Work>
    </rdf:RDF>
  </metadata>
  <defs
     id="defs31" />
  <sodipodi:namedview
     pagecolor="#ffffff"
     bordercolor="#666666"
     borderopacity="1"
     objecttolerance="10"
     gridtolerance="10"
     guidetolerance="10"
     inkscape:pageopacity="0"
     inkscape:pageshadow="2"
     inkscape:window-width="1920"
     inkscape:window-height="1010"
     id="namedview29"
     showgrid="false"
     scale-x="1"
     viewbox-x="0"
     inkscape:zoom="0.51404151"
     inkscape:cx="409.5"
     inkscape:cy="226"
     inkscape:window-x="0"
     inkscape:window-y="0"
     inkscape:window-maximized="1"
     inkscape:current-layer="svg27" />
  <clipPath
     id="p.0">
    <path
       d="M 0,0 H 819 V 452 H 0 Z"
       id="path2"
       inkscape:connector-curvature="0"
       style="clip-rule:nonzero" />
  </clipPath>
  <g
     clip-path="url(#p.0)"
     id="g25"
     transform="translate(-301.53206,-1.9453681)">
    <path
       d="M 0,0 H 819 V 452 H 0 Z"
       id="path5"
       inkscape:connector-curvature="0"
       style="fill:#000000;fill-opacity:0;fill-rule:evenodd" />
    <path
       d="M 13.590551,96.99213 H 497.3071 V 366.97638 H 13.590551 Z"
       id="path7"
       inkscape:connector-curvature="0"
       style="fill:#074bc2;fill-rule:evenodd" />
    <path
       d="M 13.590551,96.99213 H 497.3071 V 366.97638 H 13.590551 Z"
       id="path9"
       inkscape:connector-curvature="0"
       style="fill-rule:evenodd;stroke:#074bc2;stroke-width:8;stroke-linecap:butt;stroke-linejoin:round" />
    <path
       d="m 370.29135,226.12508 v 0 c 0,-117.71059 97.40448,-213.19026 217.55905,-213.25984 v 0 c 57.70026,-0.03341 113.03723,22.389652 153.83746,62.336376 40.80023,39.946724 63.72156,94.144894 63.72156,150.671514 v 0 c 0,117.71057 -97.40448,213.19025 -217.55902,213.25983 v 0 C 467.69583,439.20254 370.29135,343.83569 370.29135,226.1251 Z"
       id="path11"
       inkscape:connector-curvature="0"
       style="fill:#ec1374;fill-rule:evenodd" />
    <path
       d="m 370.29135,226.12508 v 0 c 0,-117.71059 97.40448,-213.19026 217.55905,-213.25984 v 0 c 57.70026,-0.03341 113.03723,22.389652 153.83746,62.336376 40.80023,39.946724 63.72156,94.144894 63.72156,150.671514 v 0 c 0,117.71057 -97.40448,213.19025 -217.55902,213.25983 v 0 C 467.69583,439.20254 370.29135,343.83569 370.29135,226.1251 Z"
       id="path13"
       inkscape:connector-curvature="0"
       style="fill-rule:evenodd;stroke:#ec1374;stroke-width:8;stroke-linecap:butt;stroke-linejoin:round" />
    <path
       d="M 447.1496,44.997375 H 743.46454 V 347.01312 H 447.1496 Z"
       id="path15"
       inkscape:connector-curvature="0"
       style="fill:#000000;fill-opacity:0;fill-rule:evenodd" />
    <path
       d="m 512.134,143.0411 v 89.57812 h 61.59375 q 20.98438,0 20.98438,-23.79687 v -41.98438 q 0,-23.79687 -20.98438,-23.79687 z m -27.98437,191.75 V 124.83798 l 14.82812,-7 h 74.75 q 48.98438,0 48.98438,49 v 41.98438 q 0,45.625 -42.40625,48.70312 l 45.76562,65.65625 -24.64062,11.60938 h -1.39063 L 546.14963,257.80673 H 512.134 v 64.39063 l -26.59375,12.59375 h -1.39062 z m 190.91754,0 V 124.83798 l 26.59375,-12.59375 h 1.39062 v 209.95312 l -26.59375,12.59375 z"
       id="path17"
       inkscape:connector-curvature="0"
       style="fill:#f3f3f3;fill-rule:nonzero" />
    <path
       d="M 67.74803,73.52231 H 507.30711 V 361.99475 H 67.74803 Z"
       id="path19"
       inkscape:connector-curvature="0"
       style="fill:#000000;fill-opacity:0;fill-rule:evenodd" />
    <path
       d="M 102.13866,332.12228 V 146.7629 l 24.125,-11.42188 h 1.26563 V 309.0129 h 86.96875 v 1.26563 l -10.28125,21.84375 z M 255.75194,309.2629 h 26.65623 q 12.70313,0 12.70313,-15.23437 V 276.6379 q 0,-15.23437 -12.70313,-15.23437 h -26.65623 q -12.6875,0 -12.6875,15.23437 v 17.39063 q 0,15.23437 12.6875,15.23437 z m 0,22.85938 q -38.07813,0 -38.07813,-38.09375 V 276.6379 q 0,-38.07812 38.07813,-38.07812 h 26.65623 q 6.60938,0 12.70313,3.8125 v -11.8125 q 0,-15.23438 -12.70313,-15.23438 h -45.43748 v -1.26562 l 10.15625,-21.59375 h 35.28123 q 38.09375,0 38.09375,38.09375 v 95.21875 l -24.125,11.42187 h -1.26562 v -8.89062 q -4.82813,3.8125 -12.70313,3.8125 z"
       id="path21"
       inkscape:connector-curvature="0"
       style="fill:#f3f3f3;fill-rule:nonzero" />
    <path
       d="m 403.02536,309.2629 h 29.1875 q 12.70312,0 12.70312,-15.23438 v -63.46875 q 0,-15.23437 -12.70312,-15.23437 h -29.1875 q -12.70313,0 -12.70313,15.23437 v 63.46875 q 0,15.23438 12.70313,15.23438 z m 0,22.85937 q -38.09375,0 -38.09375,-38.09375 V 146.7629 l 24.125,-11.42187 h 1.26562 v 61.0625 q 5.07813,-3.9375 12.70313,-3.9375 h 29.1875 q 38.09375,0 38.09375,38.09375 v 63.46875 q 0,38.09375 -38.09375,38.09375 h -29.1875 z"
       id="path23"
       inkscape:connector-curvature="0"
       style="fill:#f3f3f3;fill-rule:nonzero" />
  </g>
</svg>
